<svg width="58" height="32" viewBox="0 0 58 32" fill="none" xmlns="http://www.w3.org/2000/svg">
<path d="M35.9617 25.6L29.5 31.5251L23.0383 25.6H35.9617Z" fill="white" stroke="#FEC5B9" stroke-width="0.7"/>
<rect x="0.35" y="0.35" width="57.3" height="25.3" rx="4.65" fill="white" stroke="#FEC5B9" stroke-width="0.7"/>
<path d="M27.3906 24.4688C27.3906 24.7976 27.4096 25.1212 27.5 25.4375" stroke="white" stroke-linecap="round" stroke-linejoin="round"/>
<path d="M28.2188 25.4531C28.2673 25.6176 28.3441 25.8013 28.4618 25.9288C28.5309 26.0036 28.5653 25.7338 28.5781 25.6892C28.6203 25.5423 28.6634 25.4273 28.8142 25.3628C28.8652 25.3411 29.0863 25.2433 29.1319 25.3255C29.2192 25.4825 29.2091 25.7288 29.4497 25.7005C29.772 25.6626 30.0902 25.5098 30.4019 25.4245C30.661 25.3535 31.0044 25.2314 31.276 25.3194C31.3956 25.3582 31.3813 25.468 31.4062 25.5677C31.4189 25.6185 31.4167 25.6487 31.474 25.6337C31.7798 25.5532 32.0567 25.4158 32.375 25.375C32.4748 25.3622 32.8792 25.2658 32.8898 25.4566C32.893 25.5141 32.8558 25.6724 32.8941 25.6293C32.9828 25.5295 33.1906 25.5037 33.3116 25.4731C33.3612 25.4605 33.4393 25.4387 33.4905 25.4592C33.5386 25.4785 33.5406 25.5407 33.5807 25.5608C33.627 25.5839 33.774 25.4451 33.8281 25.4219" stroke="white" stroke-linecap="round" stroke-linejoin="round"/>
<path d="M32.0313 26.0938C31.6544 26.0938 31.278 26.1094 30.901 26.1094C30.1286 26.1094 29.3573 26.0747 28.5851 26.0634C28.4925 26.062 28.3999 26.0625 28.3073 26.0625C28.2648 26.0625 28.1496 26.09 28.1797 26.0599C28.2087 26.0309 28.4172 26.0161 28.441 26.0122C28.6168 25.9829 28.7922 25.9563 28.9696 25.9392C29.8508 25.8546 30.7369 25.8374 31.6198 25.7813C32.0794 25.752 32.5409 25.6683 33 25.6563C33.1931 25.6512 33.3849 25.6719 33.5781 25.6719" stroke="white" stroke-linecap="round" stroke-linejoin="round"/>
<path d="M34.3125 25.2969C34.2808 25.2087 34.2438 25.1021 34.1354 25.1806C34.0899 25.2135 34.0282 25.2709 34.0069 25.3247C34.0011 25.3395 33.9874 25.4194 34.0035 25.434C34.0408 25.468 34.1314 25.4227 34.1241 25.4922C34.12 25.5311 34.0746 25.5779 34.0391 25.5938C33.9387 25.6384 34.1685 25.5879 34.184 25.5851C34.2353 25.5757 34.2937 25.5883 34.3437 25.5747C34.3554 25.5715 34.375 25.5444 34.375 25.5564C34.375 25.5859 34.3344 25.6085 34.3134 25.6233C34.2356 25.6777 34.3857 25.6144 34.421 25.6085C34.4497 25.6037 34.4553 25.5781 34.4922 25.5781C34.5208 25.5781 34.5495 25.5781 34.5781 25.5781C34.604 25.5781 34.6304 25.5766 34.6562 25.5781C34.6655 25.5787 34.6875 25.616 34.6875 25.6155C34.6875 25.5999 34.6921 25.4395 34.7465 25.4878C34.7773 25.5152 34.7273 25.5186 34.7812 25.5156C34.8182 25.5136 34.8106 25.5018 34.8125 25.4688C34.8146 25.4337 34.9244 25.4247 34.9366 25.3819C34.9511 25.3312 34.9788 25.2969 35.0312 25.2691C35.0748 25.246 35.1068 25.2376 35.1406 25.1953C35.1749 25.1525 35.2191 25.1404 35.2578 25.1094C35.2827 25.0894 35.3041 25.0249 35.3281 25.0122C35.3704 24.9898 35.4096 24.9375 35.4609 24.9375C35.4906 24.9375 35.4791 24.9118 35.5078 24.9054C35.531 24.9002 35.6414 24.8438 35.5937 24.8438" stroke="white" stroke-linecap="round" stroke-linejoin="round"/>
<path d="M28.375 25.5312C28.3734 25.6248 28.3697 25.6674 28.2795 25.7118C28.1386 25.7813 27.9751 25.8103 27.8194 25.8212C27.6849 25.8306 27.5501 25.8199 27.4384 25.7378C27.3126 25.6455 27.2006 25.541 27.0703 25.4531C26.9863 25.3964 26.8944 25.3454 26.8229 25.2726C26.7399 25.188 26.5993 25.2018 26.4896 25.2031C26.3632 25.2046 26.1561 25.202 26.0634 25.309C25.931 25.4618 26.1849 25.6626 26.2873 25.7352C26.4291 25.8358 26.5947 25.913 26.7517 25.9878C26.8011 26.0114 26.9271 26.0461 26.9332 26.1155C26.9404 26.199 26.6453 26.1119 26.6198 26.105C26.4005 26.0459 26.1798 25.9803 26.0278 25.8056C25.9321 25.6956 25.7906 25.6513 25.6944 25.5451C25.5788 25.4176 25.3951 25.3766 25.2344 25.329C25.117 25.2942 25.0073 25.2785 24.8854 25.2812C24.7904 25.2834 25.0043 25.5322 25.0286 25.559C25.0509 25.5835 25.2316 25.6718 25.2205 25.6997C25.2154 25.7124 24.8412 25.6891 24.7812 25.6875C24.7103 25.6856 24.6181 25.6836 24.5547 25.6484C24.5258 25.6324 24.5187 25.627 24.4844 25.625C24.4414 25.6225 24.3933 25.625 24.3507 25.625C24.2666 25.625 24.3586 25.5156 24.2734 25.5156C24.2389 25.5156 24.2483 25.4705 24.2188 25.4688C24.1818 25.4666 24.1805 25.448 24.171 25.4149C24.1645 25.3921 24.0582 25.3189 24.0451 25.3073C24.0073 25.2735 23.9693 25.2426 23.9297 25.2118C23.8875 25.179 23.8619 25.1597 23.8281 25.1128C23.7658 25.0262 23.7016 24.9289 23.5972 24.8941C23.5267 24.8706 23.4605 24.8235 23.4097 24.7778C23.374 24.7456 23.2691 24.6562 23.2188 24.6562" stroke="white" stroke-linecap="round" stroke-linejoin="round"/>
</svg>
